<svg width="22" height="22" viewBox="0 0 22 22" fill="none" xmlns="http://www.w3.org/2000/svg">
<path d="M6 10.5L11 10.5V15.5" stroke="#E79899" stroke-width="1.5" stroke-linecap="round" stroke-linejoin="round"/>
<path d="M9 7.5L14.0001 7.5L14.0001 12.5" stroke="#A85A9D" stroke-linecap="round" stroke-linejoin="round"/>
<path d="M10.5 11L6 15.5" stroke="#E79899" stroke-width="1.5" stroke-linecap="round" stroke-linejoin="round"/>
</svg>
