<svg width="25" height="25" viewBox="0 0 25 25" fill="none" xmlns="http://www.w3.org/2000/svg">
<path d="M5 21.0132V3.66378C5 2.08136 6.75068 1.12569 8.08169 1.98154L20.5732 10.0137C21.7476 10.7688 21.8065 12.4643 20.6873 13.2991L8.19577 22.6163C6.87664 23.6002 5 22.6588 5 21.0132Z" fill="url(#paint0_linear)"/>
<defs>
<linearGradient id="paint0_linear" x1="5" y1="16.8478" x2="23.0002" y2="16.8415" gradientUnits="userSpaceOnUse">
<stop stop-color="#F37F7F"/>
<stop offset="1" stop-color="#944B8C"/>
</linearGradient>
</defs>
</svg>
